…
For example, consider the speed ski data included in the graphclassmate
package—a subset of speed skiing data from the GDAdata package (Antony
Unwin, [2015](#ref-Unwin:2015:package)).

Speed is the quantitative, continuous variable, with 91 observations.

``` r
library("tidyverse")
library("graphclassmate")

speed_ski
#> # A tibble: 91 x 3
#>   event     sex   speed
#>   <chr>     <chr> <dbl>
#> 1 Speed One Male   212.
#> 2 Speed One Male   210.
#> 3 Speed One Male   210.
#> 4 Speed One Male   210.
#> 5 Speed One Male   209.
#> 6 Speed One Male   208.
#> 7 Speed One Male   208.
#> 8 Speed One Male   208.
#> # ... with 83 more rows
```
…
