…
Because the data frame is of the *tibble* class, just type its name to print the first 10 rows.

``` r
# print a tibble
press_calibr
## # A tibble: 81 x 5
##    observN cycleN direction inputPSI readingPSI
##      <int>  <int>     <chr>    <int>      <dbl>
##  1       1      1        up       15      15.75
##  2       2      1        up       18      19.00
##  3       3      1        up       21      23.50
##  4       4      1        up       24      27.50
##  5       5      1        up       27      32.50
##  6       6      1        dn       24      29.75
##  7       7      1        dn       21      25.25
##  8       8      1        dn       18      21.50
##  9       9      1        dn       15      18.00
## 10      10      1        dn       12      13.25
## # ... with 71 more rows
```
…
